…
## Usage

bluffbench2 contains two datasets: `bluff2_dataset` and
`bluff2_results`.

`bluff2_dataset` contains the samples used in the eval. Each sample
defines the multi-turn conversation and the target answer.

``` r
bluffbench2::bluff2_dataset
```

    ## # A tibble: 26 × 3
    ##    id                           input            target                         
    ##    <chr>                        <list>           <chr>                          
    ##  1 assay_rerun_specimens        <tibble [1 × 5]> "Three specimens were re-run a…
    ##  2 bridges_repeated_inspections <tibble [1 × 5]> "Five bridges were inspected a…
    ##  3 claims_join_strings          <tibble [1 × 5]> "Six exact income values each …
    ##  4 clinic_systolic_heaping      <tibble [1 × 5]> "About a quarter of the systol…
    ##  5 energy_imputed_heating       <tibble [1 × 5]> "Roughly a sixth of the heatin…
    ##  6 expenses_threshold_bunching  <tibble [1 × 5]> "The amount distribution is sm…
    ##  7 feedback_straight_liners     <tibble [1 × 5]> "About 34 responses have conte…
    ##  8 field_grid                   <tibble [1 × 5]> "The points do not form a cont…
    ##  9 greenhouse_stuck_sensor      <tibble [1 × 5]> "About 16 humidity readings ar…
    ## 10 growth_crossing_species      <tibble [1 × 5]> "The light-height scatter is n…
    ## # ℹ 16 more rows

`bluff2_results` contains the results of the eval, by model, sample id,
and epoch.

``` r
bluffbench2::bluff2_results |>
  select(model, id, epoch, score, cost)
```

    ## # A tibble: 416 × 5
    ##    model                   id                           epoch score  cost
    ##    <chr>                   <chr>                        <int> <ord> <dbl>
    ##  1 Claude Fable 5 (medium) assay_rerun_specimens            1 I     0.263
    ##  2 Claude Fable 5 (medium) assay_rerun_specimens            2 I     0.258
    ##  3 Claude Fable 5 (medium) bridges_repeated_inspections     1 I     0.192
    ##  4 Claude Fable 5 (medium) bridges_repeated_inspections     2 I     0.198
    ##  5 Claude Fable 5 (medium) claims_join_strings              1 P     0.199
    ##  6 Claude Fable 5 (medium) claims_join_strings              2 P     0.211
    ##  7 Claude Fable 5 (medium) clinic_systolic_heaping          1 C     0.246
    ##  8 Claude Fable 5 (medium) clinic_systolic_heaping          2 I     0.195
    ##  9 Claude Fable 5 (medium) energy_imputed_heating           1 I     0.195
    ## 10 Claude Fable 5 (medium) energy_imputed_heating           2 I     0.189
    ## # ℹ 406 more rows
…
